.............
----------------------------------------------------------------------
Ran 13 tests in 0.037s

OK
Name             Stmts   Miss Branch BrPart  Cover   Missing
------------------------------------------------------------
Collatz.py          26      0     10      0   100%
TestCollatz.py      50      0      0      0   100%
------------------------------------------------------------
TOTAL               76      0     10      0   100%
