1 10 20
100 200 125
201 210 89
900 1000 174
3132 6600 262
6274 5273 262
4742 4756 166
9637 7843 260
8327 4399 262
2993 2759 217
7276 6980 195
3807 9948 262
332 1821 182
7111 7342 195
7715 4865 262
9026 780 262
3260 3522 181
3944 8858 262
2371 1706 183
6039 8179 262
2557 1268 209
7884 6881 257
4346 2713 238
9734 8987 260
705 9361 262
3307 5679 238
3953 2522 238
2566 736 209
1261 8470 262
1371 3287 217
76 772 171
9215 8248 247
5880 1830 238
3528 5885 238
5407 799 238
9983 7825 260
1043 5046 238
218 8175 262
8877 4823 262
2060 9423 262
8796 4054 262
8635 3931 262
7247 5991 262
3634 662 217
350 8730 262
3825 1605 238
3150 7069 262
420 8 144
3531 3418 181
5176 6247 262
1404 213 182
6138 7772 262
9696 5440 262
3344 4689 238
3224 8713 262
9726 1798 262
2988 5185 238
1097 8897 262
8815 5043 262
9297 5773 262
2208 4622 238
2378 6537 262
3803 2559 238
2064 1665 180
5222 7995 262
4067 3898 189
3080 4151 238
2042 7460 262
3698 5798 238
8843 3482 262
8914 38 262
5449 2980 238
3978 784 238
6707 5528 262
288 1340 182
3741 8627 262
3802 2771 238
7683 3996 262
9475 9778 198
4928 5806 236
171 1082 179
5228 1711 238
5037 5903 236
9504 3205 262
5080 7531 262
7307 8533 252
8678 8546 172
539 4971 238
6296 6171 262
908 6350 262
3071 4046 238
6692 1528 262
5797 8573 262
4345 1262 238
7127 9918 260
8598 3681 262
6079 7073 262
569 5963 238
3786 327 238
6123 1516 238
3264 2290 217
5529 9490 262
1884 4534 238
9890 2848 262
4559 7378 262
1337 9039 262
5280 5615 236
2038 6233 262
852 3103 217
9710 735 262
3787 4853 215
5828 3717 236
5399 9996 262
719 1099 179
3370 2672 217
9205 5905 262
1067 9486 262
280 4300 238
5010 2897 238
427 3701 217
9269 5155 262
8665 3057 262
8538 7222 252
9950 410 262
9673 1836 262
7116 8201 252
5339 5304 148
4212 3058 238
