......................
----------------------------------------------------------------------
Ran 22 tests in 0.378s

OK
Name             Stmts   Miss Branch BrPart  Cover   Missing
------------------------------------------------------------
Collatz.py          66      0     36      0   100%
TestCollatz.py      94      0      0      0   100%
------------------------------------------------------------
TOTAL              160      0     36      0   100%
