1 10 20
100 200 125
201 210 89
900 1000 174
2000 2500 209
1 5 8
3 50 112
5 90 116
50 100 119
40 55 113
4000 4999 215
3000 3200 199
100 100 26
100 50 119
200 444 144
6000 7000 262
5000 10000 262
20000 30000 308
333 444 134
4 4 3
669 990 179
899 9000 262
1 15000 276
20000 50000 324
50000 55000 340
100000 100000 129
500 600 137
1000000 120000 525
23 45 112
45 67 113
233 566 144
1000 4000 238
5000 6000 236
15000 60000 340
38000 46000 314
100 4500 238
450 500 142
10 40 112
1 3 8
1 4 8
1 5 8
1 6 9
4 500 144
456 495 142
300 450 144
5000 40000 324
3000 6700 262
230 2000 182
5022 45000 324
10 40 112
56 90 116
700000 800000 504
1000 3000 217
69 699 145
6969 69696 340
45000 30000 324
56000 56899 322
4 400 144
5 500 144
7 700 145
1 1 1
1 3 8
11 33 112
22 44 112
33 55 113
44 666 145
6 6666 262
67 900 179
499 600 137
5000 60000 340
45 67 113
34 56 113
67 78 116
12 23 21
34 45 110
56 67 108
333 555 142
555 666 145
600 690 145
4000 5006 215
299 500 144
290 589 144
5000 5900 236
456000 394999 449
1 1 1
2 2 2
3 3 8
33 33 27
34 45 110
44 44 17
22 33 112
44 55 113
11 44 112
9 9 20
89000 58999 351
456 2355 183
5999 99999 351
59999 588888 470
900000 999999 507
456 5999 238
68000 79000 351
23 45 112
56 67 108
34 244 128
45 67 113
100 304 128
590 3455 217
