1 10 20
100 200 125
201 210 89
900 1000 174
9000 10000 260
1 2 2
100 101 26
250 500 144
820 950 179
900000 999999 507
1 3400 217
1300 1400 177
2 99 119
2 999999 525
140 390 144
143895 238509 443
689 950 179
123 456 144
987 666666 509
99 100 26
1013 1015 112
5 100 119
302 904 179
7 9 20
101 103 88
1 9 20
250 251 110
1 64 113
1 78 116
1 9999 262
2 4 8
9998 9999 92
7 9 20
4 6 9
1 3 8
74 75 23
74 79 36
60 69 108
1 53 112
1 47 112
6 8 17
830 832 135
740 756 140
465 487 142
104 406 144
540 762 171
321 400 144
103 105 88
301 306 43
11 123 119
4 8 17
7 10 20
468 789 171
105 456 144
3 7 17
102 105 88
24 78 116
12 23 21
64 89 116
25 26 24
12 34 112
1 87 116
100 400 144
99 201 125
44 66 113
22 33 112
78 89 111
54 56 113
3 78 116
1 46 112
3 45 112
5 6 9
78 81 36
12 46 112
34 38 22
1 4 8
12 21 21
46 64 113
75 97 119
34 68 113
789 987 179
546 756 171
342 432 134
76 87 111
123 321 131
45 640 144
23 32 112
104 105 39
453 454 15
64 99 119
100 106 88
4058 4059 65
7890 7895 190
45 98 119
13 23 21
1 46 112
2 47 112
1 65 113
2 6 9
132 176 125
120 164 122
465 564 142
23 72 113
12 18 21
5 89 116
41 67 113
15 56 113
